<svg width="28" height="28" viewBox="0 0 28 28" fill="none" xmlns="http://www.w3.org/2000/svg">
    <path d="M21.4667 12.1333V21.4667C21.4667 24.5595 18.9595 27.0667 15.8667 27.0667H6.53335C3.44055 27.0667 0.93335 24.5595 0.93335 21.4667V12.1333C0.93335 11.1024 1.76908 10.2667 2.80002 10.2667H19.6C20.6309 10.2667 21.4667 11.1024 21.4667 12.1333ZM21.4667 12.1333H25.2C26.2309 12.1333 27.0667 12.9691 27.0667 14V17.7333C27.0667 18.7643 26.2309 19.6 25.2 19.6H21.4667M8.40002 7.46667V3.73333M14 7.46667V0"
          stroke="black"/>
</svg>
